■MMD用モデルデータ　博麗霊夢（ Reimu Hakurei ）

******* 内容 ******************************************************************

・このデータは東方Project「博麗霊夢」の「MikuMikuDance」用モデルデータです。
　”一応”環境マップを入れていますので最新版のＭＭＤをお使い下さい。

・MMD付属モデルと比較して目の可動域が狭いので、ミクのモーションを使用した場合
高確率で目が飛び出す、白目を剥く等の問題が出ます。
両目のボーンモーションの修正で直ります、覚えておいてください。
ソラ用のモーションは互換性が強いです。
（霊夢用に修正したストロボナイツのモーションを同梱しました）

・エッヂ太さは0.3辺りで使ってください。

・肌にスフィアを使用しているので、ＭＭＤは最新版をお使い下さい。

******* 履歴 ******************************************************************

■20091108
　バージョンアップ（ 表情追加・物理＆ウェイト修正 ）
　お札pmd同梱

■20091017
　バージョンアップ（ 物理＆ウェイト修正・得物付きVer同梱 ）
　月の舞モーション同梱

■20090926
　一般公開（ 物理若干修正 ）・モーション同梱

■20090925
　テスト公開（ 物理搭載済み ）

******* 注意事項 **************************************************************

データの商用利用・二次配布は禁止です。
改造は自己責任の範囲内でお願いします。

　ISAO

e-mail	:isao@witchcraft-jp.sakura.ne.jp/
HP	:http://witchcraft-jp.sakura.ne.jp/

